-- Merging decision tree log ---
manifest
ADDED from /mnt/Data/VelikiBorak/VelikiBorak/app/src/main/AndroidManifest.xml:2:1-38:12
INJECTED from /mnt/Data/VelikiBorak/VelikiBorak/app/src/main/AndroidManifest.xml:2:1-38:12
INJECTED from /mnt/Data/VelikiBorak/VelikiBorak/app/src/main/AndroidManifest.xml:2:1-38:12
INJECTED from /mnt/Data/VelikiBorak/VelikiBorak/app/src/main/AndroidManifest.xml:2:1-38:12
MERGED from [com.github.nipun-birla:BoxLoaderView:0.0.1] /root/.gradle/caches/transforms-2/files-2.1/083badcf017d6930418530a1c5facaf6/jetified-BoxLoaderView-0.0.1/AndroidManifest.xml:2:1-17:12
MERGED from [androidx.appcompat:appcompat:1.1.0] /root/.gradle/caches/transforms-2/files-2.1/72755d8593c3ca1ed00b11907b10c688/appcompat-1.1.0/AndroidManifest.xml:17:1-24:12
MERGED from [androidx.constraintlayout:constraintlayout:1.1.3] /root/.gradle/caches/transforms-2/files-2.1/65c09879886c04dd03c37ecd65c89ae1/constraintlayout-1.1.3/AndroidManifest.xml:2:1-11:12
MERGED from [com.google.firebase:firebase-core:17.2.3] /root/.gradle/caches/transforms-2/files-2.1/5897985b586b4aaf41620b8d60eb6db7/jetified-firebase-core-17.2.3/AndroidManifest.xml:2:1-9:12
MERGED from [com.google.firebase:firebase-messaging:20.1.2] /root/.gradle/caches/transforms-2/files-2.1/9fbada88fa325291a82eb809c2064dc7/jetified-firebase-messaging-20.1.2/AndroidManifest.xml:17:1-44:12
MERGED from [com.google.firebase:firebase-datatransport:17.0.3] /root/.gradle/caches/transforms-2/files-2.1/c9fdb49c77a6c560ace392ea2d5303c1/jetified-firebase-datatransport-17.0.3/AndroidManifest.xml:15:1-34:12
MERGED from [com.google.firebase:firebase-analytics:17.2.3] /root/.gradle/caches/transforms-2/files-2.1/87bc1310f335f3ababf80f9dfdd23cc9/jetified-firebase-analytics-17.2.3/AndroidManifest.xml:2:1-9:12
MERGED from [com.google.android.gms:play-services-measurement-api:17.2.3] /root/.gradle/caches/transforms-2/files-2.1/3838fa066decd5d47eec7bd5d4f2a46d/jetified-play-services-measurement-api-17.2.3/AndroidManifest.xml:17:1-36:12
MERGED from [com.google.firebase:firebase-iid:20.1.1] /root/.gradle/caches/transforms-2/files-2.1/65f174b01524df0d4bd637d7360a2e28/jetified-firebase-iid-20.1.1/AndroidManifest.xml:17:1-47:12
MERGED from [com.google.firebase:firebase-installations:16.0.0] /root/.gradle/caches/transforms-2/files-2.1/1e98b102015e39078d965ca60768118d/jetified-firebase-installations-16.0.0/AndroidManifest.xml:2:1-23:12
MERGED from [com.google.firebase:firebase-common:19.3.0] /root/.gradle/caches/transforms-2/files-2.1/1b23a58bb1c539c2a19df1b0920c32b5/jetified-firebase-common-19.3.0/AndroidManifest.xml:15:1-39:12
MERGED from [com.google.firebase:firebase-installations-interop:16.0.0] /root/.gradle/caches/transforms-2/files-2.1/f15d63931daceb1dadddad7ad8c284dd/jetified-firebase-installations-interop-16.0.0/AndroidManifest.xml:15:1-23:12
MERGED from [com.google.firebase:firebase-iid-interop:17.0.0] /root/.gradle/caches/transforms-2/files-2.1/b42d6d39f9d0ddd1d0eedd8d664bd481/jetified-firebase-iid-interop-17.0.0/AndroidManifest.xml:2:1-10:12
MERGED from [com.google.android.gms:play-services-base:17.0.0] /root/.gradle/caches/transforms-2/files-2.1/38b6c4b545e39be84f8fef63d737cf6b/jetified-play-services-base-17.0.0/AndroidManifest.xml:17:1-29:12
MERGED from [com.google.android.gms:play-services-tasks:17.0.0] /root/.gradle/caches/transforms-2/files-2.1/ff919aa2adc3061f3daede0df598b5f3/jetified-play-services-tasks-17.0.0/AndroidManifest.xml:2:1-9:12
MERGED from [com.google.firebase:firebase-measurement-connector:18.0.0] /root/.gradle/caches/transforms-2/files-2.1/a481f1d35c4d4a933182b444857cab5a/jetified-firebase-measurement-connector-18.0.0/AndroidManifest.xml:17:1-25:12
MERGED from [com.google.android.gms:play-services-measurement:17.2.3] /root/.gradle/caches/transforms-2/files-2.1/493b977d77656374211b333eaefc270a/jetified-play-services-measurement-17.2.3/AndroidManifest.xml:17:1-55:12
MERGED from [com.google.android.gms:play-services-measurement-sdk:17.2.3] /root/.gradle/caches/transforms-2/files-2.1/eba683f4bbe7b70c920ae60bf53ca549/jetified-play-services-measurement-sdk-17.2.3/AndroidManifest.xml:17:1-25:12
MERGED from [com.google.android.gms:play-services-measurement-impl:17.2.3] /root/.gradle/caches/transforms-2/files-2.1/622c49637879e9affeeb97746ec47fe6/jetified-play-services-measurement-impl-17.2.3/AndroidManifest.xml:17:1-40:12
MERGED from [com.google.android.gms:play-services-stats:17.0.0] /root/.gradle/caches/transforms-2/files-2.1/38a1471f9b60a43b2bc484b6cedb7a67/jetified-play-services-stats-17.0.0/AndroidManifest.xml:2:1-9:12
MERGED from [com.google.android.gms:play-services-measurement-sdk-api:17.2.3] /root/.gradle/caches/transforms-2/files-2.1/602317aaa2f1dddb3774e7abab6f1308/jetified-play-services-measurement-sdk-api-17.2.3/AndroidManifest.xml:17:1-27:12
MERGED from [com.google.android.gms:play-services-measurement-base:17.2.3] /root/.gradle/caches/transforms-2/files-2.1/48f8e447dd9a92ac152aa8ba0bea6204/jetified-play-services-measurement-base-17.2.3/AndroidManifest.xml:2:1-9:12
MERGED from [com.google.android.gms:play-services-ads-identifier:17.0.0] /root/.gradle/caches/transforms-2/files-2.1/530cf519bd2690ba125c7365bd4345e5/jetified-play-services-ads-identifier-17.0.0/AndroidManifest.xml:17:1-24:12
MERGED from [com.google.android.gms:play-services-basement:17.0.0] /root/.gradle/caches/transforms-2/files-2.1/f720b24cc490c109d50c0a0a1e6bf186/jetified-play-services-basement-17.0.0/AndroidManifest.xml:17:1-28:12
MERGED from [androidx.fragment:fragment:1.1.0] /root/.gradle/caches/transforms-2/files-2.1/f6a20730590ab62e2149b3f2118fc4f7/fragment-1.1.0/AndroidManifest.xml:17:1-24:12
MERGED from [androidx.appcompat:appcompat-resources:1.1.0] /root/.gradle/caches/transforms-2/files-2.1/b04599de2daa334d543a60c24c9af47d/jetified-appcompat-resources-1.1.0/AndroidManifest.xml:17:1-24:12
MERGED from [androidx.drawerlayout:drawerlayout:1.0.0] /root/.gradle/caches/transforms-2/files-2.1/709dec39ab4d41e4eaebf9d7dbe74e41/drawerlayout-1.0.0/AndroidManifest.xml:17:1-22:12
MERGED from [androidx.viewpager:viewpager:1.0.0] /root/.gradle/caches/transforms-2/files-2.1/ec2ff2d2f35f5ce21d8f3a2cd566b74c/viewpager-1.0.0/AndroidManifest.xml:17:1-22:12
MERGED from [androidx.legacy:legacy-support-core-utils:1.0.0] /root/.gradle/caches/transforms-2/files-2.1/dd6e81403769a15935cf91e15427e1b5/legacy-support-core-utils-1.0.0/AndroidManifest.xml:17:1-22:12
MERGED from [androidx.loader:loader:1.0.0] /root/.gradle/caches/transforms-2/files-2.1/33987a6c2abb97d3a5dc8363aa39ad35/loader-1.0.0/AndroidManifest.xml:17:1-22:12
MERGED from [androidx.activity:activity:1.0.0] /root/.gradle/caches/transforms-2/files-2.1/778008f0324b525fd9b227724bac745f/jetified-activity-1.0.0/AndroidManifest.xml:17:1-24:12
MERGED from [androidx.vectordrawable:vectordrawable-animated:1.1.0] /root/.gradle/caches/transforms-2/files-2.1/4339a1db68a86092531ac27a7672e57d/vectordrawable-animated-1.1.0/AndroidManifest.xml:17:1-24:12
MERGED from [androidx.vectordrawable:vectordrawable:1.1.0] /root/.gradle/caches/transforms-2/files-2.1/21e18b66e86534a7ba2f091590864e61/vectordrawable-1.1.0/AndroidManifest.xml:17:1-24:12
MERGED from [androidx.customview:customview:1.0.0] /root/.gradle/caches/transforms-2/files-2.1/faf6750b30e085dada05d5bf2b630089/customview-1.0.0/AndroidManifest.xml:17:1-22:12
MERGED from [androidx.core:core:1.1.0] /root/.gradle/caches/transforms-2/files-2.1/f961a727fd6ff1bec6d760c391cc6822/core-1.1.0/AndroidManifest.xml:17:1-26:12
MERGED from [androidx.cursoradapter:cursoradapter:1.0.0] /root/.gradle/caches/transforms-2/files-2.1/fd87986aa651fe7c3128c0b95293c012/cursoradapter-1.0.0/AndroidManifest.xml:17:1-22:12
MERGED from [com.google.android.datatransport:transport-backend-cct:2.2.0] /root/.gradle/caches/transforms-2/files-2.1/6b92bf4ad40bcdc58a60097256bb2331/jetified-transport-backend-cct-2.2.0/AndroidManifest.xml:15:1-38:12
MERGED from [com.google.android.datatransport:transport-runtime:2.2.0] /root/.gradle/caches/transforms-2/files-2.1/711d09d774dd8393d1b2cda417cd0cc2/jetified-transport-runtime-2.2.0/AndroidManifest.xml:15:1-41:12
MERGED from [com.google.firebase:firebase-components:16.0.0] /root/.gradle/caches/transforms-2/files-2.1/28950d5ca212ff0c86ed1244329056eb/jetified-firebase-components-16.0.0/AndroidManifest.xml:15:1-23:12
MERGED from [com.google.firebase:firebase-encoders-json:16.0.0] /root/.gradle/caches/transforms-2/files-2.1/1249bb1bcaf3f4d3f01295dde3ebba25/jetified-firebase-encoders-json-16.0.0/AndroidManifest.xml:15:1-23:12
MERGED from [androidx.cardview:cardview:1.0.0] /root/.gradle/caches/transforms-2/files-2.1/9e025505c94c04007a8190f74982d1e9/cardview-1.0.0/AndroidManifest.xml:17:1-22:12
MERGED from [androidx.versionedparcelable:versionedparcelable:1.1.0] /root/.gradle/caches/transforms-2/files-2.1/69ad70deb7fc3872e7a51cd7de424a87/versionedparcelable-1.1.0/AndroidManifest.xml:17:1-27:12
MERGED from [androidx.lifecycle:lifecycle-runtime:2.1.0] /root/.gradle/caches/transforms-2/files-2.1/8afb13b33fd0950ef40834a78e555523/lifecycle-runtime-2.1.0/AndroidManifest.xml:17:1-22:12
MERGED from [androidx.lifecycle:lifecycle-viewmodel:2.1.0] /root/.gradle/caches/transforms-2/files-2.1/058a364b06d9011467e5efaaa1ab266f/lifecycle-viewmodel-2.1.0/AndroidManifest.xml:17:1-22:12
MERGED from [androidx.savedstate:savedstate:1.0.0] /root/.gradle/caches/transforms-2/files-2.1/ffd0aa10f2a787335b333d5b793ff3d9/jetified-savedstate-1.0.0/AndroidManifest.xml:17:1-24:12
MERGED from [androidx.interpolator:interpolator:1.0.0] /root/.gradle/caches/transforms-2/files-2.1/c7e64f6181ef9b2b223b47bd6635a3b3/interpolator-1.0.0/AndroidManifest.xml:17:1-22:12
MERGED from [androidx.documentfile:documentfile:1.0.0] /root/.gradle/caches/transforms-2/files-2.1/6ab1828441a6b45d05a01b9241ca901a/documentfile-1.0.0/AndroidManifest.xml:17:1-22:12
MERGED from [androidx.localbroadcastmanager:localbroadcastmanager:1.0.0] /root/.gradle/caches/transforms-2/files-2.1/e7b316e008973942910afd1c84dc02d7/localbroadcastmanager-1.0.0/AndroidManifest.xml:17:1-22:12
MERGED from [androidx.print:print:1.0.0] /root/.gradle/caches/transforms-2/files-2.1/6dd4de7fc3225e55d58846adf9ecb0a7/print-1.0.0/AndroidManifest.xml:17:1-22:12
MERGED from [androidx.lifecycle:lifecycle-livedata:2.0.0] /root/.gradle/caches/transforms-2/files-2.1/dcf4af4213d59bd5fe489359c2b51b96/lifecycle-livedata-2.0.0/AndroidManifest.xml:17:1-22:12
MERGED from [androidx.lifecycle:lifecycle-livedata-core:2.0.0] /root/.gradle/caches/transforms-2/files-2.1/e5f4ab83b7154d8dd7689c213d4008f9/lifecycle-livedata-core-2.0.0/AndroidManifest.xml:17:1-22:12
MERGED from [androidx.arch.core:core-runtime:2.0.0] /root/.gradle/caches/transforms-2/files-2.1/3ad98f043f0e278e1b4f445317842885/core-runtime-2.0.0/AndroidManifest.xml:17:1-22:12
MERGED from [com.google.android.datatransport:transport-api:2.2.0] /root/.gradle/caches/transforms-2/files-2.1/ef571482370f29a8294f7595b10ea4c8/jetified-transport-api-2.2.0/AndroidManifest.xml:15:1-22:12
INJECTED from /mnt/Data/VelikiBorak/VelikiBorak/app/src/main/AndroidManifest.xml:2:1-38:12
INJECTED from /mnt/Data/VelikiBorak/VelikiBorak/app/src/main/AndroidManifest.xml:2:1-38:12
INJECTED from /mnt/Data/VelikiBorak/VelikiBorak/app/src/main/AndroidManifest.xml:2:1-38:12
	package
		ADDED from /mnt/Data/VelikiBorak/VelikiBorak/app/src/main/AndroidManifest.xml:4:5-42
		INJECTED from /mnt/Data/VelikiBorak/VelikiBorak/app/src/main/AndroidManifest.xml
		INJECTED from /mnt/Data/VelikiBorak/VelikiBorak/app/src/main/AndroidManifest.xml
	android:versionName
		INJECTED from /mnt/Data/VelikiBorak/VelikiBorak/app/src/main/AndroidManifest.xml
		ADDED from /mnt/Data/VelikiBorak/VelikiBorak/app/src/main/AndroidManifest.xml:2:1-38:12
		INJECTED from /mnt/Data/VelikiBorak/VelikiBorak/app/src/main/AndroidManifest.xml
	xmlns:tools
		ADDED from /mnt/Data/VelikiBorak/VelikiBorak/app/src/main/AndroidManifest.xml:3:5-51
	android:versionCode
		INJECTED from /mnt/Data/VelikiBorak/VelikiBorak/app/src/main/AndroidManifest.xml
		ADDED from /mnt/Data/VelikiBorak/VelikiBorak/app/src/main/AndroidManifest.xml:2:1-38:12
		INJECTED from /mnt/Data/VelikiBorak/VelikiBorak/app/src/main/AndroidManifest.xml
	xmlns:android
		ADDED from /mnt/Data/VelikiBorak/VelikiBorak/app/src/main/AndroidManifest.xml:2:11-69
application
ADDED from /mnt/Data/VelikiBorak/VelikiBorak/app/src/main/AndroidManifest.xml:6:5-31:19
MERGED from [com.github.nipun-birla:BoxLoaderView:0.0.1] /root/.gradle/caches/transforms-2/files-2.1/083badcf017d6930418530a1c5facaf6/jetified-BoxLoaderView-0.0.1/AndroidManifest.xml:11:5-15:19
MERGED from [com.github.nipun-birla:BoxLoaderView:0.0.1] /root/.gradle/caches/transforms-2/files-2.1/083badcf017d6930418530a1c5facaf6/jetified-BoxLoaderView-0.0.1/AndroidManifest.xml:11:5-15:19
MERGED from [androidx.constraintlayout:constraintlayout:1.1.3] /root/.gradle/caches/transforms-2/files-2.1/65c09879886c04dd03c37ecd65c89ae1/constraintlayout-1.1.3/AndroidManifest.xml:9:5-20
MERGED from [androidx.constraintlayout:constraintlayout:1.1.3] /root/.gradle/caches/transforms-2/files-2.1/65c09879886c04dd03c37ecd65c89ae1/constraintlayout-1.1.3/AndroidManifest.xml:9:5-20
MERGED from [com.google.firebase:firebase-core:17.2.3] /root/.gradle/caches/transforms-2/files-2.1/5897985b586b4aaf41620b8d60eb6db7/jetified-firebase-core-17.2.3/AndroidManifest.xml:7:5-20
MERGED from [com.google.firebase:firebase-core:17.2.3] /root/.gradle/caches/transforms-2/files-2.1/5897985b586b4aaf41620b8d60eb6db7/jetified-firebase-core-17.2.3/AndroidManifest.xml:7:5-20
MERGED from [com.google.firebase:firebase-messaging:20.1.2] /root/.gradle/caches/transforms-2/files-2.1/9fbada88fa325291a82eb809c2064dc7/jetified-firebase-messaging-20.1.2/AndroidManifest.xml:22:5-42:19
MERGED from [com.google.firebase:firebase-messaging:20.1.2] /root/.gradle/caches/transforms-2/files-2.1/9fbada88fa325291a82eb809c2064dc7/jetified-firebase-messaging-20.1.2/AndroidManifest.xml:22:5-42:19
MERGED from [com.google.firebase:firebase-datatransport:17.0.3] /root/.gradle/caches/transforms-2/files-2.1/c9fdb49c77a6c560ace392ea2d5303c1/jetified-firebase-datatransport-17.0.3/AndroidManifest.xml:24:5-32:19
MERGED from [com.google.firebase:firebase-datatransport:17.0.3] /root/.gradle/caches/transforms-2/files-2.1/c9fdb49c77a6c560ace392ea2d5303c1/jetified-firebase-datatransport-17.0.3/AndroidManifest.xml:24:5-32:19
MERGED from [com.google.firebase:firebase-analytics:17.2.3] /root/.gradle/caches/transforms-2/files-2.1/87bc1310f335f3ababf80f9dfdd23cc9/jetified-firebase-analytics-17.2.3/AndroidManifest.xml:7:5-20
MERGED from [com.google.firebase:firebase-analytics:17.2.3] /root/.gradle/caches/transforms-2/files-2.1/87bc1310f335f3ababf80f9dfdd23cc9/jetified-firebase-analytics-17.2.3/AndroidManifest.xml:7:5-20
MERGED from [com.google.android.gms:play-services-measurement-api:17.2.3] /root/.gradle/caches/transforms-2/files-2.1/3838fa066decd5d47eec7bd5d4f2a46d/jetified-play-services-measurement-api-17.2.3/AndroidManifest.xml:26:5-34:19
MERGED from [com.google.android.gms:play-services-measurement-api:17.2.3] /root/.gradle/caches/transforms-2/files-2.1/3838fa066decd5d47eec7bd5d4f2a46d/jetified-play-services-measurement-api-17.2.3/AndroidManifest.xml:26:5-34:19
MERGED from [com.google.firebase:firebase-iid:20.1.1] /root/.gradle/caches/transforms-2/files-2.1/65f174b01524df0d4bd637d7360a2e28/jetified-firebase-iid-20.1.1/AndroidManifest.xml:28:5-45:19
MERGED from [com.google.firebase:firebase-iid:20.1.1] /root/.gradle/caches/transforms-2/files-2.1/65f174b01524df0d4bd637d7360a2e28/jetified-firebase-iid-20.1.1/AndroidManifest.xml:28:5-45:19
MERGED from [com.google.firebase:firebase-installations:16.0.0] /root/.gradle/caches/transforms-2/files-2.1/1e98b102015e39078d965ca60768118d/jetified-firebase-installations-16.0.0/AndroidManifest.xml:13:5-21:19
MERGED from [com.google.firebase:firebase-installations:16.0.0] /root/.gradle/caches/transforms-2/files-2.1/1e98b102015e39078d965ca60768118d/jetified-firebase-installations-16.0.0/AndroidManifest.xml:13:5-21:19
MERGED from [com.google.firebase:firebase-common:19.3.0] /root/.gradle/caches/transforms-2/files-2.1/1b23a58bb1c539c2a19df1b0920c32b5/jetified-firebase-common-19.3.0/AndroidManifest.xml:25:5-37:19
MERGED from [com.google.firebase:firebase-common:19.3.0] /root/.gradle/caches/transforms-2/files-2.1/1b23a58bb1c539c2a19df1b0920c32b5/jetified-firebase-common-19.3.0/AndroidManifest.xml:25:5-37:19
MERGED from [com.google.firebase:firebase-iid-interop:17.0.0] /root/.gradle/caches/transforms-2/files-2.1/b42d6d39f9d0ddd1d0eedd8d664bd481/jetified-firebase-iid-interop-17.0.0/AndroidManifest.xml:7:5-8:19
MERGED from [com.google.firebase:firebase-iid-interop:17.0.0] /root/.gradle/caches/transforms-2/files-2.1/b42d6d39f9d0ddd1d0eedd8d664bd481/jetified-firebase-iid-interop-17.0.0/AndroidManifest.xml:7:5-8:19
MERGED from [com.google.android.gms:play-services-base:17.0.0] /root/.gradle/caches/transforms-2/files-2.1/38b6c4b545e39be84f8fef63d737cf6b/jetified-play-services-base-17.0.0/AndroidManifest.xml:22:5-27:19
MERGED from [com.google.android.gms:play-services-base:17.0.0] /root/.gradle/caches/transforms-2/files-2.1/38b6c4b545e39be84f8fef63d737cf6b/jetified-play-services-base-17.0.0/AndroidManifest.xml:22:5-27:19
MERGED from [com.google.android.gms:play-services-tasks:17.0.0] /root/.gradle/caches/transforms-2/files-2.1/ff919aa2adc3061f3daede0df598b5f3/jetified-play-services-tasks-17.0.0/AndroidManifest.xml:7:5-20
MERGED from [com.google.android.gms:play-services-tasks:17.0.0] /root/.gradle/caches/transforms-2/files-2.1/ff919aa2adc3061f3daede0df598b5f3/jetified-play-services-tasks-17.0.0/AndroidManifest.xml:7:5-20
MERGED from [com.google.firebase:firebase-measurement-connector:18.0.0] /root/.gradle/caches/transforms-2/files-2.1/a481f1d35c4d4a933182b444857cab5a/jetified-firebase-measurement-connector-18.0.0/AndroidManifest.xml:22:5-23:19
MERGED from [com.google.firebase:firebase-measurement-connector:18.0.0] /root/.gradle/caches/transforms-2/files-2.1/a481f1d35c4d4a933182b444857cab5a/jetified-firebase-measurement-connector-18.0.0/AndroidManifest.xml:22:5-23:19
MERGED from [com.google.android.gms:play-services-measurement:17.2.3] /root/.gradle/caches/transforms-2/files-2.1/493b977d77656374211b333eaefc270a/jetified-play-services-measurement-17.2.3/AndroidManifest.xml:28:5-53:19
MERGED from [com.google.android.gms:play-services-measurement:17.2.3] /root/.gradle/caches/transforms-2/files-2.1/493b977d77656374211b333eaefc270a/jetified-play-services-measurement-17.2.3/AndroidManifest.xml:28:5-53:19
MERGED from [com.google.android.gms:play-services-measurement-sdk:17.2.3] /root/.gradle/caches/transforms-2/files-2.1/eba683f4bbe7b70c920ae60bf53ca549/jetified-play-services-measurement-sdk-17.2.3/AndroidManifest.xml:22:5-23:19
MERGED from [com.google.android.gms:play-services-measurement-sdk:17.2.3] /root/.gradle/caches/transforms-2/files-2.1/eba683f4bbe7b70c920ae60bf53ca549/jetified-play-services-measurement-sdk-17.2.3/AndroidManifest.xml:22:5-23:19
MERGED from [com.google.android.gms:play-services-measurement-impl:17.2.3] /root/.gradle/caches/transforms-2/files-2.1/622c49637879e9affeeb97746ec47fe6/jetified-play-services-measurement-impl-17.2.3/AndroidManifest.xml:28:5-38:19
MERGED from [com.google.android.gms:play-services-measurement-impl:17.2.3] /root/.gradle/caches/transforms-2/files-2.1/622c49637879e9affeeb97746ec47fe6/jetified-play-services-measurement-impl-17.2.3/AndroidManifest.xml:28:5-38:19
MERGED from [com.google.android.gms:play-services-stats:17.0.0] /root/.gradle/caches/transforms-2/files-2.1/38a1471f9b60a43b2bc484b6cedb7a67/jetified-play-services-stats-17.0.0/AndroidManifest.xml:7:5-20
MERGED from [com.google.android.gms:play-services-stats:17.0.0] /root/.gradle/caches/transforms-2/files-2.1/38a1471f9b60a43b2bc484b6cedb7a67/jetified-play-services-stats-17.0.0/AndroidManifest.xml:7:5-20
MERGED from [com.google.android.gms:play-services-measurement-base:17.2.3] /root/.gradle/caches/transforms-2/files-2.1/48f8e447dd9a92ac152aa8ba0bea6204/jetified-play-services-measurement-base-17.2.3/AndroidManifest.xml:7:5-20
MERGED from [com.google.android.gms:play-services-measurement-base:17.2.3] /root/.gradle/caches/transforms-2/files-2.1/48f8e447dd9a92ac152aa8ba0bea6204/jetified-play-services-measurement-base-17.2.3/AndroidManifest.xml:7:5-20
MERGED from [com.google.android.gms:play-services-ads-identifier:17.0.0] /root/.gradle/caches/transforms-2/files-2.1/530cf519bd2690ba125c7365bd4345e5/jetified-play-services-ads-identifier-17.0.0/AndroidManifest.xml:22:5-20
MERGED from [com.google.android.gms:play-services-ads-identifier:17.0.0] /root/.gradle/caches/transforms-2/files-2.1/530cf519bd2690ba125c7365bd4345e5/jetified-play-services-ads-identifier-17.0.0/AndroidManifest.xml:22:5-20
MERGED from [com.google.android.gms:play-services-basement:17.0.0] /root/.gradle/caches/transforms-2/files-2.1/f720b24cc490c109d50c0a0a1e6bf186/jetified-play-services-basement-17.0.0/AndroidManifest.xml:22:5-26:19
MERGED from [com.google.android.gms:play-services-basement:17.0.0] /root/.gradle/caches/transforms-2/files-2.1/f720b24cc490c109d50c0a0a1e6bf186/jetified-play-services-basement-17.0.0/AndroidManifest.xml:22:5-26:19
MERGED from [androidx.core:core:1.1.0] /root/.gradle/caches/transforms-2/files-2.1/f961a727fd6ff1bec6d760c391cc6822/core-1.1.0/AndroidManifest.xml:24:5-89
MERGED from [androidx.core:core:1.1.0] /root/.gradle/caches/transforms-2/files-2.1/f961a727fd6ff1bec6d760c391cc6822/core-1.1.0/AndroidManifest.xml:24:5-89
MERGED from [com.google.android.datatransport:transport-backend-cct:2.2.0] /root/.gradle/caches/transforms-2/files-2.1/6b92bf4ad40bcdc58a60097256bb2331/jetified-transport-backend-cct-2.2.0/AndroidManifest.xml:28:5-36:19
MERGED from [com.google.android.datatransport:transport-backend-cct:2.2.0] /root/.gradle/caches/transforms-2/files-2.1/6b92bf4ad40bcdc58a60097256bb2331/jetified-transport-backend-cct-2.2.0/AndroidManifest.xml:28:5-36:19
MERGED from [com.google.android.datatransport:transport-runtime:2.2.0] /root/.gradle/caches/transforms-2/files-2.1/711d09d774dd8393d1b2cda417cd0cc2/jetified-transport-runtime-2.2.0/AndroidManifest.xml:25:5-39:19
MERGED from [com.google.android.datatransport:transport-runtime:2.2.0] /root/.gradle/caches/transforms-2/files-2.1/711d09d774dd8393d1b2cda417cd0cc2/jetified-transport-runtime-2.2.0/AndroidManifest.xml:25:5-39:19
MERGED from [androidx.versionedparcelable:versionedparcelable:1.1.0] /root/.gradle/caches/transforms-2/files-2.1/69ad70deb7fc3872e7a51cd7de424a87/versionedparcelable-1.1.0/AndroidManifest.xml:24:5-25:19
MERGED from [androidx.versionedparcelable:versionedparcelable:1.1.0] /root/.gradle/caches/transforms-2/files-2.1/69ad70deb7fc3872e7a51cd7de424a87/versionedparcelable-1.1.0/AndroidManifest.xml:24:5-25:19
	android:appComponentFactory
		ADDED from [androidx.core:core:1.1.0] /root/.gradle/caches/transforms-2/files-2.1/f961a727fd6ff1bec6d760c391cc6822/core-1.1.0/AndroidManifest.xml:24:18-86
	android:supportsRtl
		ADDED from /mnt/Data/VelikiBorak/VelikiBorak/app/src/main/AndroidManifest.xml:12:9-35
	android:label
		ADDED from /mnt/Data/VelikiBorak/VelikiBorak/app/src/main/AndroidManifest.xml:10:9-41
	tools:ignore
		ADDED from /mnt/Data/VelikiBorak/VelikiBorak/app/src/main/AndroidManifest.xml:14:9-35
	android:roundIcon
		ADDED from /mnt/Data/VelikiBorak/VelikiBorak/app/src/main/AndroidManifest.xml:11:9-54
	android:icon
		ADDED from /mnt/Data/VelikiBorak/VelikiBorak/app/src/main/AndroidManifest.xml:9:9-43
	android:allowBackup
		ADDED from /mnt/Data/VelikiBorak/VelikiBorak/app/src/main/AndroidManifest.xml:8:9-35
	android:theme
		ADDED from /mnt/Data/VelikiBorak/VelikiBorak/app/src/main/AndroidManifest.xml:13:9-59
activity#com.velikiborak.velikiborak.MainActivity
ADDED from /mnt/Data/VelikiBorak/VelikiBorak/app/src/main/AndroidManifest.xml:16:9-21:20
	android:name
		ADDED from /mnt/Data/VelikiBorak/VelikiBorak/app/src/main/AndroidManifest.xml:16:19-47
intent-filter#action:name:android.intent.action.MAIN+category:name:android.intent.category.LAUNCHER
ADDED from /mnt/Data/VelikiBorak/VelikiBorak/app/src/main/AndroidManifest.xml:17:13-20:29
action#android.intent.action.MAIN
ADDED from /mnt/Data/VelikiBorak/VelikiBorak/app/src/main/AndroidManifest.xml:18:17-69
	android:name
		ADDED from /mnt/Data/VelikiBorak/VelikiBorak/app/src/main/AndroidManifest.xml:18:25-66
category#android.intent.category.LAUNCHER
ADDED from /mnt/Data/VelikiBorak/VelikiBorak/app/src/main/AndroidManifest.xml:19:17-77
	android:name
		ADDED from /mnt/Data/VelikiBorak/VelikiBorak/app/src/main/AndroidManifest.xml:19:27-74
service#com.velikiborak.velikiborak.MyFirebaseMessagingService
ADDED from /mnt/Data/VelikiBorak/VelikiBorak/app/src/main/AndroidManifest.xml:23:9-29:19
	android:exported
		ADDED from /mnt/Data/VelikiBorak/VelikiBorak/app/src/main/AndroidManifest.xml:25:13-37
	android:name
		ADDED from /mnt/Data/VelikiBorak/VelikiBorak/app/src/main/AndroidManifest.xml:24:13-55
intent-filter#action:name:com.google.firebase.MESSAGING_EVENT
ADDED from /mnt/Data/VelikiBorak/VelikiBorak/app/src/main/AndroidManifest.xml:26:13-28:29
action#com.google.firebase.MESSAGING_EVENT
ADDED from /mnt/Data/VelikiBorak/VelikiBorak/app/src/main/AndroidManifest.xml:27:17-78
	android:name
		ADDED from /mnt/Data/VelikiBorak/VelikiBorak/app/src/main/AndroidManifest.xml:27:25-75
uses-permission#android.permission.INTERNET
ADDED from /mnt/Data/VelikiBorak/VelikiBorak/app/src/main/AndroidManifest.xml:33:5-35:40
MERGED from [com.google.android.gms:play-services-measurement-api:17.2.3] /root/.gradle/caches/transforms-2/files-2.1/3838fa066decd5d47eec7bd5d4f2a46d/jetified-play-services-measurement-api-17.2.3/AndroidManifest.xml:22:5-67
MERGED from [com.google.android.gms:play-services-measurement-api:17.2.3] /root/.gradle/caches/transforms-2/files-2.1/3838fa066decd5d47eec7bd5d4f2a46d/jetified-play-services-measurement-api-17.2.3/AndroidManifest.xml:22:5-67
MERGED from [com.google.firebase:firebase-iid:20.1.1] /root/.gradle/caches/transforms-2/files-2.1/65f174b01524df0d4bd637d7360a2e28/jetified-firebase-iid-20.1.1/AndroidManifest.xml:23:5-67
MERGED from [com.google.firebase:firebase-iid:20.1.1] /root/.gradle/caches/transforms-2/files-2.1/65f174b01524df0d4bd637d7360a2e28/jetified-firebase-iid-20.1.1/AndroidManifest.xml:23:5-67
MERGED from [com.google.firebase:firebase-installations:16.0.0] /root/.gradle/caches/transforms-2/files-2.1/1e98b102015e39078d965ca60768118d/jetified-firebase-installations-16.0.0/AndroidManifest.xml:11:5-67
MERGED from [com.google.firebase:firebase-installations:16.0.0] /root/.gradle/caches/transforms-2/files-2.1/1e98b102015e39078d965ca60768118d/jetified-firebase-installations-16.0.0/AndroidManifest.xml:11:5-67
MERGED from [com.google.android.gms:play-services-measurement:17.2.3] /root/.gradle/caches/transforms-2/files-2.1/493b977d77656374211b333eaefc270a/jetified-play-services-measurement-17.2.3/AndroidManifest.xml:23:5-67
MERGED from [com.google.android.gms:play-services-measurement:17.2.3] /root/.gradle/caches/transforms-2/files-2.1/493b977d77656374211b333eaefc270a/jetified-play-services-measurement-17.2.3/AndroidManifest.xml:23:5-67
MERGED from [com.google.android.gms:play-services-measurement-impl:17.2.3] /root/.gradle/caches/transforms-2/files-2.1/622c49637879e9affeeb97746ec47fe6/jetified-play-services-measurement-impl-17.2.3/AndroidManifest.xml:23:5-67
MERGED from [com.google.android.gms:play-services-measurement-impl:17.2.3] /root/.gradle/caches/transforms-2/files-2.1/622c49637879e9affeeb97746ec47fe6/jetified-play-services-measurement-impl-17.2.3/AndroidManifest.xml:23:5-67
MERGED from [com.google.android.gms:play-services-measurement-sdk-api:17.2.3] /root/.gradle/caches/transforms-2/files-2.1/602317aaa2f1dddb3774e7abab6f1308/jetified-play-services-measurement-sdk-api-17.2.3/AndroidManifest.xml:23:5-67
MERGED from [com.google.android.gms:play-services-measurement-sdk-api:17.2.3] /root/.gradle/caches/transforms-2/files-2.1/602317aaa2f1dddb3774e7abab6f1308/jetified-play-services-measurement-sdk-api-17.2.3/AndroidManifest.xml:23:5-67
MERGED from [com.google.android.datatransport:transport-backend-cct:2.2.0] /root/.gradle/caches/transforms-2/files-2.1/6b92bf4ad40bcdc58a60097256bb2331/jetified-transport-backend-cct-2.2.0/AndroidManifest.xml:26:5-67
MERGED from [com.google.android.datatransport:transport-backend-cct:2.2.0] /root/.gradle/caches/transforms-2/files-2.1/6b92bf4ad40bcdc58a60097256bb2331/jetified-transport-backend-cct-2.2.0/AndroidManifest.xml:26:5-67
	tools:ignore
		ADDED from /mnt/Data/VelikiBorak/VelikiBorak/app/src/main/AndroidManifest.xml:35:9-37
	android:name
		ADDED from /mnt/Data/VelikiBorak/VelikiBorak/app/src/main/AndroidManifest.xml:34:9-51
uses-permission#com.google.android.c2dm.permission.RECEIVE
ADDED from /mnt/Data/VelikiBorak/VelikiBorak/app/src/main/AndroidManifest.xml:36:5-82
MERGED from [com.google.firebase:firebase-iid:20.1.1] /root/.gradle/caches/transforms-2/files-2.1/65f174b01524df0d4bd637d7360a2e28/jetified-firebase-iid-20.1.1/AndroidManifest.xml:26:5-82
MERGED from [com.google.firebase:firebase-iid:20.1.1] /root/.gradle/caches/transforms-2/files-2.1/65f174b01524df0d4bd637d7360a2e28/jetified-firebase-iid-20.1.1/AndroidManifest.xml:26:5-82
	android:name
		ADDED from /mnt/Data/VelikiBorak/VelikiBorak/app/src/main/AndroidManifest.xml:36:22-79
uses-sdk
INJECTED from /mnt/Data/VelikiBorak/VelikiBorak/app/src/main/AndroidManifest.xml reason: use-sdk injection requested
INJECTED from /mnt/Data/VelikiBorak/VelikiBorak/app/src/main/AndroidManifest.xml
INJECTED from /mnt/Data/VelikiBorak/VelikiBorak/app/src/main/AndroidManifest.xml
MERGED from [com.github.nipun-birla:BoxLoaderView:0.0.1] /root/.gradle/caches/transforms-2/files-2.1/083badcf017d6930418530a1c5facaf6/jetified-BoxLoaderView-0.0.1/AndroidManifest.xml:7:5-9:41
MERGED from [com.github.nipun-birla:BoxLoaderView:0.0.1] /root/.gradle/caches/transforms-2/files-2.1/083badcf017d6930418530a1c5facaf6/jetified-BoxLoaderView-0.0.1/AndroidManifest.xml:7:5-9:41
MERGED from [androidx.appcompat:appcompat:1.1.0] /root/.gradle/caches/transforms-2/files-2.1/72755d8593c3ca1ed00b11907b10c688/appcompat-1.1.0/AndroidManifest.xml:20:5-22:41
MERGED from [androidx.appcompat:appcompat:1.1.0] /root/.gradle/caches/transforms-2/files-2.1/72755d8593c3ca1ed00b11907b10c688/appcompat-1.1.0/AndroidManifest.xml:20:5-22:41
MERGED from [androidx.constraintlayout:constraintlayout:1.1.3] /root/.gradle/caches/transforms-2/files-2.1/65c09879886c04dd03c37ecd65c89ae1/constraintlayout-1.1.3/AndroidManifest.xml:5:5-7:41
MERGED from [androidx.constraintlayout:constraintlayout:1.1.3] /root/.gradle/caches/transforms-2/files-2.1/65c09879886c04dd03c37ecd65c89ae1/constraintlayout-1.1.3/AndroidManifest.xml:5:5-7:41
MERGED from [com.google.firebase:firebase-core:17.2.3] /root/.gradle/caches/transforms-2/files-2.1/5897985b586b4aaf41620b8d60eb6db7/jetified-firebase-core-17.2.3/AndroidManifest.xml:5:5-44
MERGED from [com.google.firebase:firebase-core:17.2.3] /root/.gradle/caches/transforms-2/files-2.1/5897985b586b4aaf41620b8d60eb6db7/jetified-firebase-core-17.2.3/AndroidManifest.xml:5:5-44
MERGED from [com.google.firebase:firebase-messaging:20.1.2] /root/.gradle/caches/transforms-2/files-2.1/9fbada88fa325291a82eb809c2064dc7/jetified-firebase-messaging-20.1.2/AndroidManifest.xml:20:5-44
MERGED from [com.google.firebase:firebase-messaging:20.1.2] /root/.gradle/caches/transforms-2/files-2.1/9fbada88fa325291a82eb809c2064dc7/jetified-firebase-messaging-20.1.2/AndroidManifest.xml:20:5-44
MERGED from [com.google.firebase:firebase-datatransport:17.0.3] /root/.gradle/caches/transforms-2/files-2.1/c9fdb49c77a6c560ace392ea2d5303c1/jetified-firebase-datatransport-17.0.3/AndroidManifest.xml:19:5-21:41
MERGED from [com.google.firebase:firebase-datatransport:17.0.3] /root/.gradle/caches/transforms-2/files-2.1/c9fdb49c77a6c560ace392ea2d5303c1/jetified-firebase-datatransport-17.0.3/AndroidManifest.xml:19:5-21:41
MERGED from [com.google.firebase:firebase-analytics:17.2.3] /root/.gradle/caches/transforms-2/files-2.1/87bc1310f335f3ababf80f9dfdd23cc9/jetified-firebase-analytics-17.2.3/AndroidManifest.xml:5:5-44
MERGED from [com.google.firebase:firebase-analytics:17.2.3] /root/.gradle/caches/transforms-2/files-2.1/87bc1310f335f3ababf80f9dfdd23cc9/jetified-firebase-analytics-17.2.3/AndroidManifest.xml:5:5-44
MERGED from [com.google.android.gms:play-services-measurement-api:17.2.3] /root/.gradle/caches/transforms-2/files-2.1/3838fa066decd5d47eec7bd5d4f2a46d/jetified-play-services-measurement-api-17.2.3/AndroidManifest.xml:20:5-44
MERGED from [com.google.android.gms:play-services-measurement-api:17.2.3] /root/.gradle/caches/transforms-2/files-2.1/3838fa066decd5d47eec7bd5d4f2a46d/jetified-play-services-measurement-api-17.2.3/AndroidManifest.xml:20:5-44
MERGED from [com.google.firebase:firebase-iid:20.1.1] /root/.gradle/caches/transforms-2/files-2.1/65f174b01524df0d4bd637d7360a2e28/jetified-firebase-iid-20.1.1/AndroidManifest.xml:20:5-44
MERGED from [com.google.firebase:firebase-iid:20.1.1] /root/.gradle/caches/transforms-2/files-2.1/65f174b01524df0d4bd637d7360a2e28/jetified-firebase-iid-20.1.1/AndroidManifest.xml:20:5-44
MERGED from [com.google.firebase:firebase-installations:16.0.0] /root/.gradle/caches/transforms-2/files-2.1/1e98b102015e39078d965ca60768118d/jetified-firebase-installations-16.0.0/AndroidManifest.xml:6:5-8:41
MERGED from [com.google.firebase:firebase-installations:16.0.0] /root/.gradle/caches/transforms-2/files-2.1/1e98b102015e39078d965ca60768118d/jetified-firebase-installations-16.0.0/AndroidManifest.xml:6:5-8:41
MERGED from [com.google.firebase:firebase-common:19.3.0] /root/.gradle/caches/transforms-2/files-2.1/1b23a58bb1c539c2a19df1b0920c32b5/jetified-firebase-common-19.3.0/AndroidManifest.xml:20:5-22:41
MERGED from [com.google.firebase:firebase-common:19.3.0] /root/.gradle/caches/transforms-2/files-2.1/1b23a58bb1c539c2a19df1b0920c32b5/jetified-firebase-common-19.3.0/AndroidManifest.xml:20:5-22:41
MERGED from [com.google.firebase:firebase-installations-interop:16.0.0] /root/.gradle/caches/transforms-2/files-2.1/f15d63931daceb1dadddad7ad8c284dd/jetified-firebase-installations-interop-16.0.0/AndroidManifest.xml:19:5-21:41
MERGED from [com.google.firebase:firebase-installations-interop:16.0.0] /root/.gradle/caches/transforms-2/files-2.1/f15d63931daceb1dadddad7ad8c284dd/jetified-firebase-installations-interop-16.0.0/AndroidManifest.xml:19:5-21:41
MERGED from [com.google.firebase:firebase-iid-interop:17.0.0] /root/.gradle/caches/transforms-2/files-2.1/b42d6d39f9d0ddd1d0eedd8d664bd481/jetified-firebase-iid-interop-17.0.0/AndroidManifest.xml:5:5-44
MERGED from [com.google.firebase:firebase-iid-interop:17.0.0] /root/.gradle/caches/transforms-2/files-2.1/b42d6d39f9d0ddd1d0eedd8d664bd481/jetified-firebase-iid-interop-17.0.0/AndroidManifest.xml:5:5-44
MERGED from [com.google.android.gms:play-services-base:17.0.0] /root/.gradle/caches/transforms-2/files-2.1/38b6c4b545e39be84f8fef63d737cf6b/jetified-play-services-base-17.0.0/AndroidManifest.xml:20:5-44
MERGED from [com.google.android.gms:play-services-base:17.0.0] /root/.gradle/caches/transforms-2/files-2.1/38b6c4b545e39be84f8fef63d737cf6b/jetified-play-services-base-17.0.0/AndroidManifest.xml:20:5-44
MERGED from [com.google.android.gms:play-services-tasks:17.0.0] /root/.gradle/caches/transforms-2/files-2.1/ff919aa2adc3061f3daede0df598b5f3/jetified-play-services-tasks-17.0.0/AndroidManifest.xml:5:5-44
MERGED from [com.google.android.gms:play-services-tasks:17.0.0] /root/.gradle/caches/transforms-2/files-2.1/ff919aa2adc3061f3daede0df598b5f3/jetified-play-services-tasks-17.0.0/AndroidManifest.xml:5:5-44
MERGED from [com.google.firebase:firebase-measurement-connector:18.0.0] /root/.gradle/caches/transforms-2/files-2.1/a481f1d35c4d4a933182b444857cab5a/jetified-firebase-measurement-connector-18.0.0/AndroidManifest.xml:20:5-44
MERGED from [com.google.firebase:firebase-measurement-connector:18.0.0] /root/.gradle/caches/transforms-2/files-2.1/a481f1d35c4d4a933182b444857cab5a/jetified-firebase-measurement-connector-18.0.0/AndroidManifest.xml:20:5-44
MERGED from [com.google.android.gms:play-services-measurement:17.2.3] /root/.gradle/caches/transforms-2/files-2.1/493b977d77656374211b333eaefc270a/jetified-play-services-measurement-17.2.3/AndroidManifest.xml:20:5-44
MERGED from [com.google.android.gms:play-services-measurement:17.2.3] /root/.gradle/caches/transforms-2/files-2.1/493b977d77656374211b333eaefc270a/jetified-play-services-measurement-17.2.3/AndroidManifest.xml:20:5-44
MERGED from [com.google.android.gms:play-services-measurement-sdk:17.2.3] /root/.gradle/caches/transforms-2/files-2.1/eba683f4bbe7b70c920ae60bf53ca549/jetified-play-services-measurement-sdk-17.2.3/AndroidManifest.xml:20:5-44
MERGED from [com.google.android.gms:play-services-measurement-sdk:17.2.3] /root/.gradle/caches/transforms-2/files-2.1/eba683f4bbe7b70c920ae60bf53ca549/jetified-play-services-measurement-sdk-17.2.3/AndroidManifest.xml:20:5-44
MERGED from [com.google.android.gms:play-services-measurement-impl:17.2.3] /root/.gradle/caches/transforms-2/files-2.1/622c49637879e9affeeb97746ec47fe6/jetified-play-services-measurement-impl-17.2.3/AndroidManifest.xml:20:5-44
MERGED from [com.google.android.gms:play-services-measurement-impl:17.2.3] /root/.gradle/caches/transforms-2/files-2.1/622c49637879e9affeeb97746ec47fe6/jetified-play-services-measurement-impl-17.2.3/AndroidManifest.xml:20:5-44
MERGED from [com.google.android.gms:play-services-stats:17.0.0] /root/.gradle/caches/transforms-2/files-2.1/38a1471f9b60a43b2bc484b6cedb7a67/jetified-play-services-stats-17.0.0/AndroidManifest.xml:5:5-44
MERGED from [com.google.android.gms:play-services-stats:17.0.0] /root/.gradle/caches/transforms-2/files-2.1/38a1471f9b60a43b2bc484b6cedb7a67/jetified-play-services-stats-17.0.0/AndroidManifest.xml:5:5-44
MERGED from [com.google.android.gms:play-services-measurement-sdk-api:17.2.3] /root/.gradle/caches/transforms-2/files-2.1/602317aaa2f1dddb3774e7abab6f1308/jetified-play-services-measurement-sdk-api-17.2.3/AndroidManifest.xml:20:5-44
MERGED from [com.google.android.gms:play-services-measurement-sdk-api:17.2.3] /root/.gradle/caches/transforms-2/files-2.1/602317aaa2f1dddb3774e7abab6f1308/jetified-play-services-measurement-sdk-api-17.2.3/AndroidManifest.xml:20:5-44
MERGED from [com.google.android.gms:play-services-measurement-base:17.2.3] /root/.gradle/caches/transforms-2/files-2.1/48f8e447dd9a92ac152aa8ba0bea6204/jetified-play-services-measurement-base-17.2.3/AndroidManifest.xml:5:5-44
MERGED from [com.google.android.gms:play-services-measurement-base:17.2.3] /root/.gradle/caches/transforms-2/files-2.1/48f8e447dd9a92ac152aa8ba0bea6204/jetified-play-services-measurement-base-17.2.3/AndroidManifest.xml:5:5-44
MERGED from [com.google.android.gms:play-services-ads-identifier:17.0.0] /root/.gradle/caches/transforms-2/files-2.1/530cf519bd2690ba125c7365bd4345e5/jetified-play-services-ads-identifier-17.0.0/AndroidManifest.xml:20:5-44
MERGED from [com.google.android.gms:play-services-ads-identifier:17.0.0] /root/.gradle/caches/transforms-2/files-2.1/530cf519bd2690ba125c7365bd4345e5/jetified-play-services-ads-identifier-17.0.0/AndroidManifest.xml:20:5-44
MERGED from [com.google.android.gms:play-services-basement:17.0.0] /root/.gradle/caches/transforms-2/files-2.1/f720b24cc490c109d50c0a0a1e6bf186/jetified-play-services-basement-17.0.0/AndroidManifest.xml:20:5-44
MERGED from [com.google.android.gms:play-services-basement:17.0.0] /root/.gradle/caches/transforms-2/files-2.1/f720b24cc490c109d50c0a0a1e6bf186/jetified-play-services-basement-17.0.0/AndroidManifest.xml:20:5-44
MERGED from [androidx.fragment:fragment:1.1.0] /root/.gradle/caches/transforms-2/files-2.1/f6a20730590ab62e2149b3f2118fc4f7/fragment-1.1.0/AndroidManifest.xml:20:5-22:41
MERGED from [androidx.fragment:fragment:1.1.0] /root/.gradle/caches/transforms-2/files-2.1/f6a20730590ab62e2149b3f2118fc4f7/fragment-1.1.0/AndroidManifest.xml:20:5-22:41
MERGED from [androidx.appcompat:appcompat-resources:1.1.0] /root/.gradle/caches/transforms-2/files-2.1/b04599de2daa334d543a60c24c9af47d/jetified-appcompat-resources-1.1.0/AndroidManifest.xml:20:5-22:41
MERGED from [androidx.appcompat:appcompat-resources:1.1.0] /root/.gradle/caches/transforms-2/files-2.1/b04599de2daa334d543a60c24c9af47d/jetified-appcompat-resources-1.1.0/AndroidManifest.xml:20:5-22:41
MERGED from [androidx.drawerlayout:drawerlayout:1.0.0] /root/.gradle/caches/transforms-2/files-2.1/709dec39ab4d41e4eaebf9d7dbe74e41/drawerlayout-1.0.0/AndroidManifest.xml:20:5-44
MERGED from [androidx.drawerlayout:drawerlayout:1.0.0] /root/.gradle/caches/transforms-2/files-2.1/709dec39ab4d41e4eaebf9d7dbe74e41/drawerlayout-1.0.0/AndroidManifest.xml:20:5-44
MERGED from [androidx.viewpager:viewpager:1.0.0] /root/.gradle/caches/transforms-2/files-2.1/ec2ff2d2f35f5ce21d8f3a2cd566b74c/viewpager-1.0.0/AndroidManifest.xml:20:5-44
MERGED from [androidx.viewpager:viewpager:1.0.0] /root/.gradle/caches/transforms-2/files-2.1/ec2ff2d2f35f5ce21d8f3a2cd566b74c/viewpager-1.0.0/AndroidManifest.xml:20:5-44
MERGED from [androidx.legacy:legacy-support-core-utils:1.0.0] /root/.gradle/caches/transforms-2/files-2.1/dd6e81403769a15935cf91e15427e1b5/legacy-support-core-utils-1.0.0/AndroidManifest.xml:20:5-44
MERGED from [androidx.legacy:legacy-support-core-utils:1.0.0] /root/.gradle/caches/transforms-2/files-2.1/dd6e81403769a15935cf91e15427e1b5/legacy-support-core-utils-1.0.0/AndroidManifest.xml:20:5-44
MERGED from [androidx.loader:loader:1.0.0] /root/.gradle/caches/transforms-2/files-2.1/33987a6c2abb97d3a5dc8363aa39ad35/loader-1.0.0/AndroidManifest.xml:20:5-44
MERGED from [androidx.loader:loader:1.0.0] /root/.gradle/caches/transforms-2/files-2.1/33987a6c2abb97d3a5dc8363aa39ad35/loader-1.0.0/AndroidManifest.xml:20:5-44
MERGED from [androidx.activity:activity:1.0.0] /root/.gradle/caches/transforms-2/files-2.1/778008f0324b525fd9b227724bac745f/jetified-activity-1.0.0/AndroidManifest.xml:20:5-22:41
MERGED from [androidx.activity:activity:1.0.0] /root/.gradle/caches/transforms-2/files-2.1/778008f0324b525fd9b227724bac745f/jetified-activity-1.0.0/AndroidManifest.xml:20:5-22:41
MERGED from [androidx.vectordrawable:vectordrawable-animated:1.1.0] /root/.gradle/caches/transforms-2/files-2.1/4339a1db68a86092531ac27a7672e57d/vectordrawable-animated-1.1.0/AndroidManifest.xml:20:5-22:41
MERGED from [androidx.vectordrawable:vectordrawable-animated:1.1.0] /root/.gradle/caches/transforms-2/files-2.1/4339a1db68a86092531ac27a7672e57d/vectordrawable-animated-1.1.0/AndroidManifest.xml:20:5-22:41
MERGED from [androidx.vectordrawable:vectordrawable:1.1.0] /root/.gradle/caches/transforms-2/files-2.1/21e18b66e86534a7ba2f091590864e61/vectordrawable-1.1.0/AndroidManifest.xml:20:5-22:41
MERGED from [androidx.vectordrawable:vectordrawable:1.1.0] /root/.gradle/caches/transforms-2/files-2.1/21e18b66e86534a7ba2f091590864e61/vectordrawable-1.1.0/AndroidManifest.xml:20:5-22:41
MERGED from [androidx.customview:customview:1.0.0] /root/.gradle/caches/transforms-2/files-2.1/faf6750b30e085dada05d5bf2b630089/customview-1.0.0/AndroidManifest.xml:20:5-44
MERGED from [androidx.customview:customview:1.0.0] /root/.gradle/caches/transforms-2/files-2.1/faf6750b30e085dada05d5bf2b630089/customview-1.0.0/AndroidManifest.xml:20:5-44
MERGED from [androidx.core:core:1.1.0] /root/.gradle/caches/transforms-2/files-2.1/f961a727fd6ff1bec6d760c391cc6822/core-1.1.0/AndroidManifest.xml:20:5-22:41
MERGED from [androidx.core:core:1.1.0] /root/.gradle/caches/transforms-2/files-2.1/f961a727fd6ff1bec6d760c391cc6822/core-1.1.0/AndroidManifest.xml:20:5-22:41
MERGED from [androidx.cursoradapter:cursoradapter:1.0.0] /root/.gradle/caches/transforms-2/files-2.1/fd87986aa651fe7c3128c0b95293c012/cursoradapter-1.0.0/AndroidManifest.xml:20:5-44
MERGED from [androidx.cursoradapter:cursoradapter:1.0.0] /root/.gradle/caches/transforms-2/files-2.1/fd87986aa651fe7c3128c0b95293c012/cursoradapter-1.0.0/AndroidManifest.xml:20:5-44
MERGED from [com.google.android.datatransport:transport-backend-cct:2.2.0] /root/.gradle/caches/transforms-2/files-2.1/6b92bf4ad40bcdc58a60097256bb2331/jetified-transport-backend-cct-2.2.0/AndroidManifest.xml:19:5-21:41
MERGED from [com.google.android.datatransport:transport-backend-cct:2.2.0] /root/.gradle/caches/transforms-2/files-2.1/6b92bf4ad40bcdc58a60097256bb2331/jetified-transport-backend-cct-2.2.0/AndroidManifest.xml:19:5-21:41
MERGED from [com.google.android.datatransport:transport-runtime:2.2.0] /root/.gradle/caches/transforms-2/files-2.1/711d09d774dd8393d1b2cda417cd0cc2/jetified-transport-runtime-2.2.0/AndroidManifest.xml:18:5-20:41
MERGED from [com.google.android.datatransport:transport-runtime:2.2.0] /root/.gradle/caches/transforms-2/files-2.1/711d09d774dd8393d1b2cda417cd0cc2/jetified-transport-runtime-2.2.0/AndroidManifest.xml:18:5-20:41
MERGED from [com.google.firebase:firebase-components:16.0.0] /root/.gradle/caches/transforms-2/files-2.1/28950d5ca212ff0c86ed1244329056eb/jetified-firebase-components-16.0.0/AndroidManifest.xml:19:5-21:41
MERGED from [com.google.firebase:firebase-components:16.0.0] /root/.gradle/caches/transforms-2/files-2.1/28950d5ca212ff0c86ed1244329056eb/jetified-firebase-components-16.0.0/AndroidManifest.xml:19:5-21:41
MERGED from [com.google.firebase:firebase-encoders-json:16.0.0] /root/.gradle/caches/transforms-2/files-2.1/1249bb1bcaf3f4d3f01295dde3ebba25/jetified-firebase-encoders-json-16.0.0/AndroidManifest.xml:19:5-21:41
MERGED from [com.google.firebase:firebase-encoders-json:16.0.0] /root/.gradle/caches/transforms-2/files-2.1/1249bb1bcaf3f4d3f01295dde3ebba25/jetified-firebase-encoders-json-16.0.0/AndroidManifest.xml:19:5-21:41
MERGED from [androidx.cardview:cardview:1.0.0] /root/.gradle/caches/transforms-2/files-2.1/9e025505c94c04007a8190f74982d1e9/cardview-1.0.0/AndroidManifest.xml:20:5-44
MERGED from [androidx.cardview:cardview:1.0.0] /root/.gradle/caches/transforms-2/files-2.1/9e025505c94c04007a8190f74982d1e9/cardview-1.0.0/AndroidManifest.xml:20:5-44
MERGED from [androidx.versionedparcelable:versionedparcelable:1.1.0] /root/.gradle/caches/transforms-2/files-2.1/69ad70deb7fc3872e7a51cd7de424a87/versionedparcelable-1.1.0/AndroidManifest.xml:20:5-22:41
MERGED from [androidx.versionedparcelable:versionedparcelable:1.1.0] /root/.gradle/caches/transforms-2/files-2.1/69ad70deb7fc3872e7a51cd7de424a87/versionedparcelable-1.1.0/AndroidManifest.xml:20:5-22:41
MERGED from [androidx.lifecycle:lifecycle-runtime:2.1.0] /root/.gradle/caches/transforms-2/files-2.1/8afb13b33fd0950ef40834a78e555523/lifecycle-runtime-2.1.0/AndroidManifest.xml:20:5-44
MERGED from [androidx.lifecycle:lifecycle-runtime:2.1.0] /root/.gradle/caches/transforms-2/files-2.1/8afb13b33fd0950ef40834a78e555523/lifecycle-runtime-2.1.0/AndroidManifest.xml:20:5-44
MERGED from [androidx.lifecycle:lifecycle-viewmodel:2.1.0] /root/.gradle/caches/transforms-2/files-2.1/058a364b06d9011467e5efaaa1ab266f/lifecycle-viewmodel-2.1.0/AndroidManifest.xml:20:5-44
MERGED from [androidx.lifecycle:lifecycle-viewmodel:2.1.0] /root/.gradle/caches/transforms-2/files-2.1/058a364b06d9011467e5efaaa1ab266f/lifecycle-viewmodel-2.1.0/AndroidManifest.xml:20:5-44
MERGED from [androidx.savedstate:savedstate:1.0.0] /root/.gradle/caches/transforms-2/files-2.1/ffd0aa10f2a787335b333d5b793ff3d9/jetified-savedstate-1.0.0/AndroidManifest.xml:20:5-22:41
MERGED from [androidx.savedstate:savedstate:1.0.0] /root/.gradle/caches/transforms-2/files-2.1/ffd0aa10f2a787335b333d5b793ff3d9/jetified-savedstate-1.0.0/AndroidManifest.xml:20:5-22:41
MERGED from [androidx.interpolator:interpolator:1.0.0] /root/.gradle/caches/transforms-2/files-2.1/c7e64f6181ef9b2b223b47bd6635a3b3/interpolator-1.0.0/AndroidManifest.xml:20:5-44
MERGED from [androidx.interpolator:interpolator:1.0.0] /root/.gradle/caches/transforms-2/files-2.1/c7e64f6181ef9b2b223b47bd6635a3b3/interpolator-1.0.0/AndroidManifest.xml:20:5-44
MERGED from [androidx.documentfile:documentfile:1.0.0] /root/.gradle/caches/transforms-2/files-2.1/6ab1828441a6b45d05a01b9241ca901a/documentfile-1.0.0/AndroidManifest.xml:20:5-44
MERGED from [androidx.documentfile:documentfile:1.0.0] /root/.gradle/caches/transforms-2/files-2.1/6ab1828441a6b45d05a01b9241ca901a/documentfile-1.0.0/AndroidManifest.xml:20:5-44
MERGED from [androidx.localbroadcastmanager:localbroadcastmanager:1.0.0] /root/.gradle/caches/transforms-2/files-2.1/e7b316e008973942910afd1c84dc02d7/localbroadcastmanager-1.0.0/AndroidManifest.xml:20:5-44
MERGED from [androidx.localbroadcastmanager:localbroadcastmanager:1.0.0] /root/.gradle/caches/transforms-2/files-2.1/e7b316e008973942910afd1c84dc02d7/localbroadcastmanager-1.0.0/AndroidManifest.xml:20:5-44
MERGED from [androidx.print:print:1.0.0] /root/.gradle/caches/transforms-2/files-2.1/6dd4de7fc3225e55d58846adf9ecb0a7/print-1.0.0/AndroidManifest.xml:20:5-44
MERGED from [androidx.print:print:1.0.0] /root/.gradle/caches/transforms-2/files-2.1/6dd4de7fc3225e55d58846adf9ecb0a7/print-1.0.0/AndroidManifest.xml:20:5-44
MERGED from [androidx.lifecycle:lifecycle-livedata:2.0.0] /root/.gradle/caches/transforms-2/files-2.1/dcf4af4213d59bd5fe489359c2b51b96/lifecycle-livedata-2.0.0/AndroidManifest.xml:20:5-44
MERGED from [androidx.lifecycle:lifecycle-livedata:2.0.0] /root/.gradle/caches/transforms-2/files-2.1/dcf4af4213d59bd5fe489359c2b51b96/lifecycle-livedata-2.0.0/AndroidManifest.xml:20:5-44
MERGED from [androidx.lifecycle:lifecycle-livedata-core:2.0.0] /root/.gradle/caches/transforms-2/files-2.1/e5f4ab83b7154d8dd7689c213d4008f9/lifecycle-livedata-core-2.0.0/AndroidManifest.xml:20:5-44
MERGED from [androidx.lifecycle:lifecycle-livedata-core:2.0.0] /root/.gradle/caches/transforms-2/files-2.1/e5f4ab83b7154d8dd7689c213d4008f9/lifecycle-livedata-core-2.0.0/AndroidManifest.xml:20:5-44
MERGED from [androidx.arch.core:core-runtime:2.0.0] /root/.gradle/caches/transforms-2/files-2.1/3ad98f043f0e278e1b4f445317842885/core-runtime-2.0.0/AndroidManifest.xml:20:5-44
MERGED from [androidx.arch.core:core-runtime:2.0.0] /root/.gradle/caches/transforms-2/files-2.1/3ad98f043f0e278e1b4f445317842885/core-runtime-2.0.0/AndroidManifest.xml:20:5-44
MERGED from [com.google.android.datatransport:transport-api:2.2.0] /root/.gradle/caches/transforms-2/files-2.1/ef571482370f29a8294f7595b10ea4c8/jetified-transport-api-2.2.0/AndroidManifest.xml:18:5-20:41
MERGED from [com.google.android.datatransport:transport-api:2.2.0] /root/.gradle/caches/transforms-2/files-2.1/ef571482370f29a8294f7595b10ea4c8/jetified-transport-api-2.2.0/AndroidManifest.xml:18:5-20:41
INJECTED from /mnt/Data/VelikiBorak/VelikiBorak/app/src/main/AndroidManifest.xml
INJECTED from /mnt/Data/VelikiBorak/VelikiBorak/app/src/main/AndroidManifest.xml
	android:targetSdkVersion
		INJECTED from /mnt/Data/VelikiBorak/VelikiBorak/app/src/main/AndroidManifest.xml
		ADDED from /mnt/Data/VelikiBorak/VelikiBorak/app/src/main/AndroidManifest.xml
		INJECTED from /mnt/Data/VelikiBorak/VelikiBorak/app/src/main/AndroidManifest.xml
	android:minSdkVersion
		INJECTED from /mnt/Data/VelikiBorak/VelikiBorak/app/src/main/AndroidManifest.xml
		ADDED from /mnt/Data/VelikiBorak/VelikiBorak/app/src/main/AndroidManifest.xml
		INJECTED from /mnt/Data/VelikiBorak/VelikiBorak/app/src/main/AndroidManifest.xml
service#com.google.firebase.messaging.FirebaseMessagingService
ADDED from [com.google.firebase:firebase-messaging:20.1.2] /root/.gradle/caches/transforms-2/files-2.1/9fbada88fa325291a82eb809c2064dc7/jetified-firebase-messaging-20.1.2/AndroidManifest.xml:28:9-34:19
	android:exported
		ADDED from [com.google.firebase:firebase-messaging:20.1.2] /root/.gradle/caches/transforms-2/files-2.1/9fbada88fa325291a82eb809c2064dc7/jetified-firebase-messaging-20.1.2/AndroidManifest.xml:30:13-37
	android:name
		ADDED from [com.google.firebase:firebase-messaging:20.1.2] /root/.gradle/caches/transforms-2/files-2.1/9fbada88fa325291a82eb809c2064dc7/jetified-firebase-messaging-20.1.2/AndroidManifest.xml:29:13-82
service#com.google.firebase.components.ComponentDiscoveryService
ADDED from [com.google.firebase:firebase-messaging:20.1.2] /root/.gradle/caches/transforms-2/files-2.1/9fbada88fa325291a82eb809c2064dc7/jetified-firebase-messaging-20.1.2/AndroidManifest.xml:35:9-41:19
MERGED from [com.google.firebase:firebase-datatransport:17.0.3] /root/.gradle/caches/transforms-2/files-2.1/c9fdb49c77a6c560ace392ea2d5303c1/jetified-firebase-datatransport-17.0.3/AndroidManifest.xml:25:9-31:19
MERGED from [com.google.firebase:firebase-datatransport:17.0.3] /root/.gradle/caches/transforms-2/files-2.1/c9fdb49c77a6c560ace392ea2d5303c1/jetified-firebase-datatransport-17.0.3/AndroidManifest.xml:25:9-31:19
MERGED from [com.google.android.gms:play-services-measurement-api:17.2.3] /root/.gradle/caches/transforms-2/files-2.1/3838fa066decd5d47eec7bd5d4f2a46d/jetified-play-services-measurement-api-17.2.3/AndroidManifest.xml:27:9-33:19
MERGED from [com.google.android.gms:play-services-measurement-api:17.2.3] /root/.gradle/caches/transforms-2/files-2.1/3838fa066decd5d47eec7bd5d4f2a46d/jetified-play-services-measurement-api-17.2.3/AndroidManifest.xml:27:9-33:19
MERGED from [com.google.firebase:firebase-iid:20.1.1] /root/.gradle/caches/transforms-2/files-2.1/65f174b01524df0d4bd637d7360a2e28/jetified-firebase-iid-20.1.1/AndroidManifest.xml:29:9-35:19
MERGED from [com.google.firebase:firebase-iid:20.1.1] /root/.gradle/caches/transforms-2/files-2.1/65f174b01524df0d4bd637d7360a2e28/jetified-firebase-iid-20.1.1/AndroidManifest.xml:29:9-35:19
MERGED from [com.google.firebase:firebase-installations:16.0.0] /root/.gradle/caches/transforms-2/files-2.1/1e98b102015e39078d965ca60768118d/jetified-firebase-installations-16.0.0/AndroidManifest.xml:14:9-20:19
MERGED from [com.google.firebase:firebase-installations:16.0.0] /root/.gradle/caches/transforms-2/files-2.1/1e98b102015e39078d965ca60768118d/jetified-firebase-installations-16.0.0/AndroidManifest.xml:14:9-20:19
MERGED from [com.google.firebase:firebase-common:19.3.0] /root/.gradle/caches/transforms-2/files-2.1/1b23a58bb1c539c2a19df1b0920c32b5/jetified-firebase-common-19.3.0/AndroidManifest.xml:32:9-36:35
MERGED from [com.google.firebase:firebase-common:19.3.0] /root/.gradle/caches/transforms-2/files-2.1/1b23a58bb1c539c2a19df1b0920c32b5/jetified-firebase-common-19.3.0/AndroidManifest.xml:32:9-36:35
	android:exported
		ADDED from [com.google.firebase:firebase-messaging:20.1.2] /root/.gradle/caches/transforms-2/files-2.1/9fbada88fa325291a82eb809c2064dc7/jetified-firebase-messaging-20.1.2/AndroidManifest.xml:37:13-37
	tools:targetApi
		ADDED from [com.google.firebase:firebase-common:19.3.0] /root/.gradle/caches/transforms-2/files-2.1/1b23a58bb1c539c2a19df1b0920c32b5/jetified-firebase-common-19.3.0/AndroidManifest.xml:36:13-32
	android:directBootAware
		ADDED from [com.google.firebase:firebase-common:19.3.0] /root/.gradle/caches/transforms-2/files-2.1/1b23a58bb1c539c2a19df1b0920c32b5/jetified-firebase-common-19.3.0/AndroidManifest.xml:34:13-43
	android:name
		ADDED from [com.google.firebase:firebase-messaging:20.1.2] /root/.gradle/caches/transforms-2/files-2.1/9fbada88fa325291a82eb809c2064dc7/jetified-firebase-messaging-20.1.2/AndroidManifest.xml:36:13-84
meta-data#com.google.firebase.components:com.google.firebase.messaging.FirebaseMessagingRegistrar
ADDED from [com.google.firebase:firebase-messaging:20.1.2] /root/.gradle/caches/transforms-2/files-2.1/9fbada88fa325291a82eb809c2064dc7/jetified-firebase-messaging-20.1.2/AndroidManifest.xml:38:13-40:85
	android:value
		ADDED from [com.google.firebase:firebase-messaging:20.1.2] /root/.gradle/caches/transforms-2/files-2.1/9fbada88fa325291a82eb809c2064dc7/jetified-firebase-messaging-20.1.2/AndroidManifest.xml:40:17-82
	android:name
		ADDED from [com.google.firebase:firebase-messaging:20.1.2] /root/.gradle/caches/transforms-2/files-2.1/9fbada88fa325291a82eb809c2064dc7/jetified-firebase-messaging-20.1.2/AndroidManifest.xml:39:17-119
meta-data#com.google.firebase.components:com.google.firebase.datatransport.TransportRegistrar
ADDED from [com.google.firebase:firebase-datatransport:17.0.3] /root/.gradle/caches/transforms-2/files-2.1/c9fdb49c77a6c560ace392ea2d5303c1/jetified-firebase-datatransport-17.0.3/AndroidManifest.xml:28:13-30:85
	android:value
		ADDED from [com.google.firebase:firebase-datatransport:17.0.3] /root/.gradle/caches/transforms-2/files-2.1/c9fdb49c77a6c560ace392ea2d5303c1/jetified-firebase-datatransport-17.0.3/AndroidManifest.xml:30:17-82
	android:name
		ADDED from [com.google.firebase:firebase-datatransport:17.0.3] /root/.gradle/caches/transforms-2/files-2.1/c9fdb49c77a6c560ace392ea2d5303c1/jetified-firebase-datatransport-17.0.3/AndroidManifest.xml:29:17-115
uses-permission#android.permission.ACCESS_NETWORK_STATE
ADDED from [com.google.android.gms:play-services-measurement-api:17.2.3] /root/.gradle/caches/transforms-2/files-2.1/3838fa066decd5d47eec7bd5d4f2a46d/jetified-play-services-measurement-api-17.2.3/AndroidManifest.xml:23:5-79
MERGED from [com.google.firebase:firebase-iid:20.1.1] /root/.gradle/caches/transforms-2/files-2.1/65f174b01524df0d4bd637d7360a2e28/jetified-firebase-iid-20.1.1/AndroidManifest.xml:22:5-79
MERGED from [com.google.firebase:firebase-iid:20.1.1] /root/.gradle/caches/transforms-2/files-2.1/65f174b01524df0d4bd637d7360a2e28/jetified-firebase-iid-20.1.1/AndroidManifest.xml:22:5-79
MERGED from [com.google.firebase:firebase-installations:16.0.0] /root/.gradle/caches/transforms-2/files-2.1/1e98b102015e39078d965ca60768118d/jetified-firebase-installations-16.0.0/AndroidManifest.xml:10:5-79
MERGED from [com.google.firebase:firebase-installations:16.0.0] /root/.gradle/caches/transforms-2/files-2.1/1e98b102015e39078d965ca60768118d/jetified-firebase-installations-16.0.0/AndroidManifest.xml:10:5-79
MERGED from [com.google.android.gms:play-services-measurement:17.2.3] /root/.gradle/caches/transforms-2/files-2.1/493b977d77656374211b333eaefc270a/jetified-play-services-measurement-17.2.3/AndroidManifest.xml:24:5-79
MERGED from [com.google.android.gms:play-services-measurement:17.2.3] /root/.gradle/caches/transforms-2/files-2.1/493b977d77656374211b333eaefc270a/jetified-play-services-measurement-17.2.3/AndroidManifest.xml:24:5-79
MERGED from [com.google.android.gms:play-services-measurement-impl:17.2.3] /root/.gradle/caches/transforms-2/files-2.1/622c49637879e9affeeb97746ec47fe6/jetified-play-services-measurement-impl-17.2.3/AndroidManifest.xml:24:5-79
MERGED from [com.google.android.gms:play-services-measurement-impl:17.2.3] /root/.gradle/caches/transforms-2/files-2.1/622c49637879e9affeeb97746ec47fe6/jetified-play-services-measurement-impl-17.2.3/AndroidManifest.xml:24:5-79
MERGED from [com.google.android.gms:play-services-measurement-sdk-api:17.2.3] /root/.gradle/caches/transforms-2/files-2.1/602317aaa2f1dddb3774e7abab6f1308/jetified-play-services-measurement-sdk-api-17.2.3/AndroidManifest.xml:24:5-79
MERGED from [com.google.android.gms:play-services-measurement-sdk-api:17.2.3] /root/.gradle/caches/transforms-2/files-2.1/602317aaa2f1dddb3774e7abab6f1308/jetified-play-services-measurement-sdk-api-17.2.3/AndroidManifest.xml:24:5-79
MERGED from [com.google.android.datatransport:transport-backend-cct:2.2.0] /root/.gradle/caches/transforms-2/files-2.1/6b92bf4ad40bcdc58a60097256bb2331/jetified-transport-backend-cct-2.2.0/AndroidManifest.xml:25:5-79
MERGED from [com.google.android.datatransport:transport-backend-cct:2.2.0] /root/.gradle/caches/transforms-2/files-2.1/6b92bf4ad40bcdc58a60097256bb2331/jetified-transport-backend-cct-2.2.0/AndroidManifest.xml:25:5-79
MERGED from [com.google.android.datatransport:transport-runtime:2.2.0] /root/.gradle/caches/transforms-2/files-2.1/711d09d774dd8393d1b2cda417cd0cc2/jetified-transport-runtime-2.2.0/AndroidManifest.xml:22:5-79
MERGED from [com.google.android.datatransport:transport-runtime:2.2.0] /root/.gradle/caches/transforms-2/files-2.1/711d09d774dd8393d1b2cda417cd0cc2/jetified-transport-runtime-2.2.0/AndroidManifest.xml:22:5-79
	android:name
		ADDED from [com.google.android.gms:play-services-measurement-api:17.2.3] /root/.gradle/caches/transforms-2/files-2.1/3838fa066decd5d47eec7bd5d4f2a46d/jetified-play-services-measurement-api-17.2.3/AndroidManifest.xml:23:22-76
uses-permission#android.permission.WAKE_LOCK
ADDED from [com.google.android.gms:play-services-measurement-api:17.2.3] /root/.gradle/caches/transforms-2/files-2.1/3838fa066decd5d47eec7bd5d4f2a46d/jetified-play-services-measurement-api-17.2.3/AndroidManifest.xml:24:5-68
MERGED from [com.google.firebase:firebase-iid:20.1.1] /root/.gradle/caches/transforms-2/files-2.1/65f174b01524df0d4bd637d7360a2e28/jetified-firebase-iid-20.1.1/AndroidManifest.xml:24:5-68
MERGED from [com.google.firebase:firebase-iid:20.1.1] /root/.gradle/caches/transforms-2/files-2.1/65f174b01524df0d4bd637d7360a2e28/jetified-firebase-iid-20.1.1/AndroidManifest.xml:24:5-68
MERGED from [com.google.android.gms:play-services-measurement:17.2.3] /root/.gradle/caches/transforms-2/files-2.1/493b977d77656374211b333eaefc270a/jetified-play-services-measurement-17.2.3/AndroidManifest.xml:25:5-68
MERGED from [com.google.android.gms:play-services-measurement:17.2.3] /root/.gradle/caches/transforms-2/files-2.1/493b977d77656374211b333eaefc270a/jetified-play-services-measurement-17.2.3/AndroidManifest.xml:25:5-68
MERGED from [com.google.android.gms:play-services-measurement-impl:17.2.3] /root/.gradle/caches/transforms-2/files-2.1/622c49637879e9affeeb97746ec47fe6/jetified-play-services-measurement-impl-17.2.3/AndroidManifest.xml:25:5-68
MERGED from [com.google.android.gms:play-services-measurement-impl:17.2.3] /root/.gradle/caches/transforms-2/files-2.1/622c49637879e9affeeb97746ec47fe6/jetified-play-services-measurement-impl-17.2.3/AndroidManifest.xml:25:5-68
MERGED from [com.google.android.gms:play-services-measurement-sdk-api:17.2.3] /root/.gradle/caches/transforms-2/files-2.1/602317aaa2f1dddb3774e7abab6f1308/jetified-play-services-measurement-sdk-api-17.2.3/AndroidManifest.xml:25:5-68
MERGED from [com.google.android.gms:play-services-measurement-sdk-api:17.2.3] /root/.gradle/caches/transforms-2/files-2.1/602317aaa2f1dddb3774e7abab6f1308/jetified-play-services-measurement-sdk-api-17.2.3/AndroidManifest.xml:25:5-68
	android:name
		ADDED from [com.google.android.gms:play-services-measurement-api:17.2.3] /root/.gradle/caches/transforms-2/files-2.1/3838fa066decd5d47eec7bd5d4f2a46d/jetified-play-services-measurement-api-17.2.3/AndroidManifest.xml:24:22-65
meta-data#com.google.firebase.components:com.google.firebase.analytics.connector.internal.AnalyticsConnectorRegistrar
ADDED from [com.google.android.gms:play-services-measurement-api:17.2.3] /root/.gradle/caches/transforms-2/files-2.1/3838fa066decd5d47eec7bd5d4f2a46d/jetified-play-services-measurement-api-17.2.3/AndroidManifest.xml:30:13-32:85
	android:value
		ADDED from [com.google.android.gms:play-services-measurement-api:17.2.3] /root/.gradle/caches/transforms-2/files-2.1/3838fa066decd5d47eec7bd5d4f2a46d/jetified-play-services-measurement-api-17.2.3/AndroidManifest.xml:32:17-82
	android:name
		ADDED from [com.google.android.gms:play-services-measurement-api:17.2.3] /root/.gradle/caches/transforms-2/files-2.1/3838fa066decd5d47eec7bd5d4f2a46d/jetified-play-services-measurement-api-17.2.3/AndroidManifest.xml:31:17-139
meta-data#com.google.firebase.components:com.google.firebase.iid.Registrar
ADDED from [com.google.firebase:firebase-iid:20.1.1] /root/.gradle/caches/transforms-2/files-2.1/65f174b01524df0d4bd637d7360a2e28/jetified-firebase-iid-20.1.1/AndroidManifest.xml:32:13-34:85
	android:value
		ADDED from [com.google.firebase:firebase-iid:20.1.1] /root/.gradle/caches/transforms-2/files-2.1/65f174b01524df0d4bd637d7360a2e28/jetified-firebase-iid-20.1.1/AndroidManifest.xml:34:17-82
	android:name
		ADDED from [com.google.firebase:firebase-iid:20.1.1] /root/.gradle/caches/transforms-2/files-2.1/65f174b01524df0d4bd637d7360a2e28/jetified-firebase-iid-20.1.1/AndroidManifest.xml:33:17-96
receiver#com.google.firebase.iid.FirebaseInstanceIdReceiver
ADDED from [com.google.firebase:firebase-iid:20.1.1] /root/.gradle/caches/transforms-2/files-2.1/65f174b01524df0d4bd637d7360a2e28/jetified-firebase-iid-20.1.1/AndroidManifest.xml:37:9-44:20
	android:exported
		ADDED from [com.google.firebase:firebase-iid:20.1.1] /root/.gradle/caches/transforms-2/files-2.1/65f174b01524df0d4bd637d7360a2e28/jetified-firebase-iid-20.1.1/AndroidManifest.xml:39:13-36
	android:permission
		ADDED from [com.google.firebase:firebase-iid:20.1.1] /root/.gradle/caches/transforms-2/files-2.1/65f174b01524df0d4bd637d7360a2e28/jetified-firebase-iid-20.1.1/AndroidManifest.xml:40:13-73
	android:name
		ADDED from [com.google.firebase:firebase-iid:20.1.1] /root/.gradle/caches/transforms-2/files-2.1/65f174b01524df0d4bd637d7360a2e28/jetified-firebase-iid-20.1.1/AndroidManifest.xml:38:13-78
intent-filter#action:name:com.google.android.c2dm.intent.RECEIVE
ADDED from [com.google.firebase:firebase-iid:20.1.1] /root/.gradle/caches/transforms-2/files-2.1/65f174b01524df0d4bd637d7360a2e28/jetified-firebase-iid-20.1.1/AndroidManifest.xml:41:13-43:29
action#com.google.android.c2dm.intent.RECEIVE
ADDED from [com.google.firebase:firebase-iid:20.1.1] /root/.gradle/caches/transforms-2/files-2.1/65f174b01524df0d4bd637d7360a2e28/jetified-firebase-iid-20.1.1/AndroidManifest.xml:42:17-81
	android:name
		ADDED from [com.google.firebase:firebase-iid:20.1.1] /root/.gradle/caches/transforms-2/files-2.1/65f174b01524df0d4bd637d7360a2e28/jetified-firebase-iid-20.1.1/AndroidManifest.xml:42:25-78
meta-data#com.google.firebase.components:com.google.firebase.installations.FirebaseInstallationsRegistrar
ADDED from [com.google.firebase:firebase-installations:16.0.0] /root/.gradle/caches/transforms-2/files-2.1/1e98b102015e39078d965ca60768118d/jetified-firebase-installations-16.0.0/AndroidManifest.xml:17:13-19:85
	android:value
		ADDED from [com.google.firebase:firebase-installations:16.0.0] /root/.gradle/caches/transforms-2/files-2.1/1e98b102015e39078d965ca60768118d/jetified-firebase-installations-16.0.0/AndroidManifest.xml:19:17-82
	android:name
		ADDED from [com.google.firebase:firebase-installations:16.0.0] /root/.gradle/caches/transforms-2/files-2.1/1e98b102015e39078d965ca60768118d/jetified-firebase-installations-16.0.0/AndroidManifest.xml:18:17-127
provider#com.google.firebase.provider.FirebaseInitProvider
ADDED from [com.google.firebase:firebase-common:19.3.0] /root/.gradle/caches/transforms-2/files-2.1/1b23a58bb1c539c2a19df1b0920c32b5/jetified-firebase-common-19.3.0/AndroidManifest.xml:26:9-30:39
	android:authorities
		ADDED from [com.google.firebase:firebase-common:19.3.0] /root/.gradle/caches/transforms-2/files-2.1/1b23a58bb1c539c2a19df1b0920c32b5/jetified-firebase-common-19.3.0/AndroidManifest.xml:28:13-72
	android:exported
		ADDED from [com.google.firebase:firebase-common:19.3.0] /root/.gradle/caches/transforms-2/files-2.1/1b23a58bb1c539c2a19df1b0920c32b5/jetified-firebase-common-19.3.0/AndroidManifest.xml:29:13-37
	android:initOrder
		ADDED from [com.google.firebase:firebase-common:19.3.0] /root/.gradle/caches/transforms-2/files-2.1/1b23a58bb1c539c2a19df1b0920c32b5/jetified-firebase-common-19.3.0/AndroidManifest.xml:30:13-36
	android:name
		ADDED from [com.google.firebase:firebase-common:19.3.0] /root/.gradle/caches/transforms-2/files-2.1/1b23a58bb1c539c2a19df1b0920c32b5/jetified-firebase-common-19.3.0/AndroidManifest.xml:27:13-77
activity#com.google.android.gms.common.api.GoogleApiActivity
ADDED from [com.google.android.gms:play-services-base:17.0.0] /root/.gradle/caches/transforms-2/files-2.1/38b6c4b545e39be84f8fef63d737cf6b/jetified-play-services-base-17.0.0/AndroidManifest.xml:23:9-26:75
	android:exported
		ADDED from [com.google.android.gms:play-services-base:17.0.0] /root/.gradle/caches/transforms-2/files-2.1/38b6c4b545e39be84f8fef63d737cf6b/jetified-play-services-base-17.0.0/AndroidManifest.xml:25:13-37
	android:theme
		ADDED from [com.google.android.gms:play-services-base:17.0.0] /root/.gradle/caches/transforms-2/files-2.1/38b6c4b545e39be84f8fef63d737cf6b/jetified-play-services-base-17.0.0/AndroidManifest.xml:26:13-72
	android:name
		ADDED from [com.google.android.gms:play-services-base:17.0.0] /root/.gradle/caches/transforms-2/files-2.1/38b6c4b545e39be84f8fef63d737cf6b/jetified-play-services-base-17.0.0/AndroidManifest.xml:24:13-79
uses-permission#com.google.android.finsky.permission.BIND_GET_INSTALL_REFERRER_SERVICE
ADDED from [com.google.android.gms:play-services-measurement:17.2.3] /root/.gradle/caches/transforms-2/files-2.1/493b977d77656374211b333eaefc270a/jetified-play-services-measurement-17.2.3/AndroidManifest.xml:26:5-110
MERGED from [com.google.android.gms:play-services-measurement-impl:17.2.3] /root/.gradle/caches/transforms-2/files-2.1/622c49637879e9affeeb97746ec47fe6/jetified-play-services-measurement-impl-17.2.3/AndroidManifest.xml:26:5-110
MERGED from [com.google.android.gms:play-services-measurement-impl:17.2.3] /root/.gradle/caches/transforms-2/files-2.1/622c49637879e9affeeb97746ec47fe6/jetified-play-services-measurement-impl-17.2.3/AndroidManifest.xml:26:5-110
	android:name
		ADDED from [com.google.android.gms:play-services-measurement:17.2.3] /root/.gradle/caches/transforms-2/files-2.1/493b977d77656374211b333eaefc270a/jetified-play-services-measurement-17.2.3/AndroidManifest.xml:26:22-107
receiver#com.google.android.gms.measurement.AppMeasurementReceiver
ADDED from [com.google.android.gms:play-services-measurement:17.2.3] /root/.gradle/caches/transforms-2/files-2.1/493b977d77656374211b333eaefc270a/jetified-play-services-measurement-17.2.3/AndroidManifest.xml:29:9-33:20
	android:enabled
		ADDED from [com.google.android.gms:play-services-measurement:17.2.3] /root/.gradle/caches/transforms-2/files-2.1/493b977d77656374211b333eaefc270a/jetified-play-services-measurement-17.2.3/AndroidManifest.xml:31:13-35
	android:exported
		ADDED from [com.google.android.gms:play-services-measurement:17.2.3] /root/.gradle/caches/transforms-2/files-2.1/493b977d77656374211b333eaefc270a/jetified-play-services-measurement-17.2.3/AndroidManifest.xml:32:13-37
	android:name
		ADDED from [com.google.android.gms:play-services-measurement:17.2.3] /root/.gradle/caches/transforms-2/files-2.1/493b977d77656374211b333eaefc270a/jetified-play-services-measurement-17.2.3/AndroidManifest.xml:30:13-85
receiver#com.google.android.gms.measurement.AppMeasurementInstallReferrerReceiver
ADDED from [com.google.android.gms:play-services-measurement:17.2.3] /root/.gradle/caches/transforms-2/files-2.1/493b977d77656374211b333eaefc270a/jetified-play-services-measurement-17.2.3/AndroidManifest.xml:34:9-42:20
MERGED from [com.google.android.gms:play-services-measurement-impl:17.2.3] /root/.gradle/caches/transforms-2/files-2.1/622c49637879e9affeeb97746ec47fe6/jetified-play-services-measurement-impl-17.2.3/AndroidManifest.xml:29:9-37:20
MERGED from [com.google.android.gms:play-services-measurement-impl:17.2.3] /root/.gradle/caches/transforms-2/files-2.1/622c49637879e9affeeb97746ec47fe6/jetified-play-services-measurement-impl-17.2.3/AndroidManifest.xml:29:9-37:20
	android:enabled
		ADDED from [com.google.android.gms:play-services-measurement:17.2.3] /root/.gradle/caches/transforms-2/files-2.1/493b977d77656374211b333eaefc270a/jetified-play-services-measurement-17.2.3/AndroidManifest.xml:36:13-35
	android:exported
		ADDED from [com.google.android.gms:play-services-measurement:17.2.3] /root/.gradle/caches/transforms-2/files-2.1/493b977d77656374211b333eaefc270a/jetified-play-services-measurement-17.2.3/AndroidManifest.xml:37:13-36
	android:permission
		ADDED from [com.google.android.gms:play-services-measurement:17.2.3] /root/.gradle/caches/transforms-2/files-2.1/493b977d77656374211b333eaefc270a/jetified-play-services-measurement-17.2.3/AndroidManifest.xml:38:13-69
	android:name
		ADDED from [com.google.android.gms:play-services-measurement:17.2.3] /root/.gradle/caches/transforms-2/files-2.1/493b977d77656374211b333eaefc270a/jetified-play-services-measurement-17.2.3/AndroidManifest.xml:35:13-100
intent-filter#action:name:com.android.vending.INSTALL_REFERRER
ADDED from [com.google.android.gms:play-services-measurement:17.2.3] /root/.gradle/caches/transforms-2/files-2.1/493b977d77656374211b333eaefc270a/jetified-play-services-measurement-17.2.3/AndroidManifest.xml:39:13-41:29
action#com.android.vending.INSTALL_REFERRER
ADDED from [com.google.android.gms:play-services-measurement:17.2.3] /root/.gradle/caches/transforms-2/files-2.1/493b977d77656374211b333eaefc270a/jetified-play-services-measurement-17.2.3/AndroidManifest.xml:40:17-79
	android:name
		ADDED from [com.google.android.gms:play-services-measurement:17.2.3] /root/.gradle/caches/transforms-2/files-2.1/493b977d77656374211b333eaefc270a/jetified-play-services-measurement-17.2.3/AndroidManifest.xml:40:25-76
service#com.google.android.gms.measurement.AppMeasurementService
ADDED from [com.google.android.gms:play-services-measurement:17.2.3] /root/.gradle/caches/transforms-2/files-2.1/493b977d77656374211b333eaefc270a/jetified-play-services-measurement-17.2.3/AndroidManifest.xml:44:9-47:40
	android:enabled
		ADDED from [com.google.android.gms:play-services-measurement:17.2.3] /root/.gradle/caches/transforms-2/files-2.1/493b977d77656374211b333eaefc270a/jetified-play-services-measurement-17.2.3/AndroidManifest.xml:46:13-35
	android:exported
		ADDED from [com.google.android.gms:play-services-measurement:17.2.3] /root/.gradle/caches/transforms-2/files-2.1/493b977d77656374211b333eaefc270a/jetified-play-services-measurement-17.2.3/AndroidManifest.xml:47:13-37
	android:name
		ADDED from [com.google.android.gms:play-services-measurement:17.2.3] /root/.gradle/caches/transforms-2/files-2.1/493b977d77656374211b333eaefc270a/jetified-play-services-measurement-17.2.3/AndroidManifest.xml:45:13-84
service#com.google.android.gms.measurement.AppMeasurementJobService
ADDED from [com.google.android.gms:play-services-measurement:17.2.3] /root/.gradle/caches/transforms-2/files-2.1/493b977d77656374211b333eaefc270a/jetified-play-services-measurement-17.2.3/AndroidManifest.xml:48:9-52:72
	android:enabled
		ADDED from [com.google.android.gms:play-services-measurement:17.2.3] /root/.gradle/caches/transforms-2/files-2.1/493b977d77656374211b333eaefc270a/jetified-play-services-measurement-17.2.3/AndroidManifest.xml:50:13-35
	android:exported
		ADDED from [com.google.android.gms:play-services-measurement:17.2.3] /root/.gradle/caches/transforms-2/files-2.1/493b977d77656374211b333eaefc270a/jetified-play-services-measurement-17.2.3/AndroidManifest.xml:51:13-37
	android:permission
		ADDED from [com.google.android.gms:play-services-measurement:17.2.3] /root/.gradle/caches/transforms-2/files-2.1/493b977d77656374211b333eaefc270a/jetified-play-services-measurement-17.2.3/AndroidManifest.xml:52:13-69
	android:name
		ADDED from [com.google.android.gms:play-services-measurement:17.2.3] /root/.gradle/caches/transforms-2/files-2.1/493b977d77656374211b333eaefc270a/jetified-play-services-measurement-17.2.3/AndroidManifest.xml:49:13-87
meta-data#com.google.android.gms.version
ADDED from [com.google.android.gms:play-services-basement:17.0.0] /root/.gradle/caches/transforms-2/files-2.1/f720b24cc490c109d50c0a0a1e6bf186/jetified-play-services-basement-17.0.0/AndroidManifest.xml:23:9-25:69
	android:value
		ADDED from [com.google.android.gms:play-services-basement:17.0.0] /root/.gradle/caches/transforms-2/files-2.1/f720b24cc490c109d50c0a0a1e6bf186/jetified-play-services-basement-17.0.0/AndroidManifest.xml:25:13-66
	android:name
		ADDED from [com.google.android.gms:play-services-basement:17.0.0] /root/.gradle/caches/transforms-2/files-2.1/f720b24cc490c109d50c0a0a1e6bf186/jetified-play-services-basement-17.0.0/AndroidManifest.xml:24:13-58
service#com.google.android.datatransport.runtime.backends.TransportBackendDiscovery
ADDED from [com.google.android.datatransport:transport-backend-cct:2.2.0] /root/.gradle/caches/transforms-2/files-2.1/6b92bf4ad40bcdc58a60097256bb2331/jetified-transport-backend-cct-2.2.0/AndroidManifest.xml:29:9-35:19
MERGED from [com.google.android.datatransport:transport-runtime:2.2.0] /root/.gradle/caches/transforms-2/files-2.1/711d09d774dd8393d1b2cda417cd0cc2/jetified-transport-runtime-2.2.0/AndroidManifest.xml:36:9-38:40
MERGED from [com.google.android.datatransport:transport-runtime:2.2.0] /root/.gradle/caches/transforms-2/files-2.1/711d09d774dd8393d1b2cda417cd0cc2/jetified-transport-runtime-2.2.0/AndroidManifest.xml:36:9-38:40
	android:exported
		ADDED from [com.google.android.datatransport:transport-backend-cct:2.2.0] /root/.gradle/caches/transforms-2/files-2.1/6b92bf4ad40bcdc58a60097256bb2331/jetified-transport-backend-cct-2.2.0/AndroidManifest.xml:31:13-37
	android:name
		ADDED from [com.google.android.datatransport:transport-backend-cct:2.2.0] /root/.gradle/caches/transforms-2/files-2.1/6b92bf4ad40bcdc58a60097256bb2331/jetified-transport-backend-cct-2.2.0/AndroidManifest.xml:30:13-103
meta-data#backend:com.google.android.datatransport.cct.CctBackendFactory
ADDED from [com.google.android.datatransport:transport-backend-cct:2.2.0] /root/.gradle/caches/transforms-2/files-2.1/6b92bf4ad40bcdc58a60097256bb2331/jetified-transport-backend-cct-2.2.0/AndroidManifest.xml:32:13-34:39
	android:value
		ADDED from [com.google.android.datatransport:transport-backend-cct:2.2.0] /root/.gradle/caches/transforms-2/files-2.1/6b92bf4ad40bcdc58a60097256bb2331/jetified-transport-backend-cct-2.2.0/AndroidManifest.xml:34:17-36
	android:name
		ADDED from [com.google.android.datatransport:transport-backend-cct:2.2.0] /root/.gradle/caches/transforms-2/files-2.1/6b92bf4ad40bcdc58a60097256bb2331/jetified-transport-backend-cct-2.2.0/AndroidManifest.xml:33:17-94
service#com.google.android.datatransport.runtime.scheduling.jobscheduling.JobInfoSchedulerService
ADDED from [com.google.android.datatransport:transport-runtime:2.2.0] /root/.gradle/caches/transforms-2/files-2.1/711d09d774dd8393d1b2cda417cd0cc2/jetified-transport-runtime-2.2.0/AndroidManifest.xml:26:9-30:19
	android:exported
		ADDED from [com.google.android.datatransport:transport-runtime:2.2.0] /root/.gradle/caches/transforms-2/files-2.1/711d09d774dd8393d1b2cda417cd0cc2/jetified-transport-runtime-2.2.0/AndroidManifest.xml:28:13-37
	android:permission
		ADDED from [com.google.android.datatransport:transport-runtime:2.2.0] /root/.gradle/caches/transforms-2/files-2.1/711d09d774dd8393d1b2cda417cd0cc2/jetified-transport-runtime-2.2.0/AndroidManifest.xml:29:13-69
	android:name
		ADDED from [com.google.android.datatransport:transport-runtime:2.2.0] /root/.gradle/caches/transforms-2/files-2.1/711d09d774dd8393d1b2cda417cd0cc2/jetified-transport-runtime-2.2.0/AndroidManifest.xml:27:13-117
receiver#com.google.android.datatransport.runtime.scheduling.jobscheduling.AlarmManagerSchedulerBroadcastReceiver
ADDED from [com.google.android.datatransport:transport-runtime:2.2.0] /root/.gradle/caches/transforms-2/files-2.1/711d09d774dd8393d1b2cda417cd0cc2/jetified-transport-runtime-2.2.0/AndroidManifest.xml:32:9-34:40
	android:exported
		ADDED from [com.google.android.datatransport:transport-runtime:2.2.0] /root/.gradle/caches/transforms-2/files-2.1/711d09d774dd8393d1b2cda417cd0cc2/jetified-transport-runtime-2.2.0/AndroidManifest.xml:34:13-37
	android:name
		ADDED from [com.google.android.datatransport:transport-runtime:2.2.0] /root/.gradle/caches/transforms-2/files-2.1/711d09d774dd8393d1b2cda417cd0cc2/jetified-transport-runtime-2.2.0/AndroidManifest.xml:33:13-132
